Timer 1,FALSE,0:07:00,0:05:30,0:03:00,0:01:00
StopWatch 1,TRUE,0:00:00,0:00:00,0:00:00,0:00:00
Timer 2,FALSE,0:02:00,0:01:30,0:01:00,0:00:30
