<?xml version="1.0" encoding="utf-8"?>
<!-- Generator: Adobe Illustrator 21.1.0, SVG Export Plug-In . SVG Version: 6.00 Build 0)  -->
<svg version="1.1" id="Calque_1" xmlns="http://www.w3.org/2000/svg" xmlns:xlink="http://www.w3.org/1999/xlink" x="0px" y="0px"
	 viewBox="0 0 432 432" style="enable-background:new 0 0 432 432;" xml:space="preserve">
<style type="text/css">
	.st0{fill:#F4A294;}
	.st1{fill:#575756;}
	.st2{fill:#725240;}
	.st3{fill:#3C3C3B;}
	.st4{fill:#95C11F;}
	.st5{fill:#EA4E51;}
	.st6{fill:#CB8937;}
	.st7{fill:#BE1622;}
	.st8{fill:#008D36;}
	.st9{fill:#88A6B5;}
	.st10{fill:#DADADA;}
	.st11{fill:#C6C6C6;}
	.st12{fill:#759174;}
	.st13{fill:#9DB5C0;}
	.st14{fill:#925989;}
	.st15{fill:#3AAA35;}
	.st16{fill:#006633;}
	.st17{fill:#6F7A8A;}
	.st18{fill:#683C11;}
</style>
<g>
	<path class="st0" d="M282.5,243.9c0.5-0.5,0.6-1.2,0.9-1.7c1.1-3.1,1.8-6.4,2.6-9.6c1.2-5.4,2.4-10.8,3.7-16.1
		c0.2-0.7,0.2-1.3,0.1-2c-0.6-6.9-0.1-13.8,1.8-20.6c0.8-2.7,1.8-5.4,3.6-7.6c1.2-1.4,2.5-2.5,4.2-3.4c2.7-1.4,5.5-1.2,8.2,0.1
		c2.9,1.4,4.8,3.8,5.7,6.9c1,3.3-0.3,6.6-3.3,8.6c-2.1,1.4-4.5,2-7,2.4c-0.7,0.1-1.7,0-2.2,0.4c-0.5,0.5-0.4,1.5-0.4,2.3
		c-0.5,6-0.3,11.9,0.3,17.9c0.5,5.2,2.3,10.1,4.8,14.7c0.8,1.5,2,2.7,3.3,3.8c2.4,2,5.1,2.3,8,1c2.4-1.1,4.2-2.8,5.9-4.8
		c2.9-3.6,5.2-7.7,7.3-11.8c2.6-5.2,4.6-10.5,6.7-15.9c0.8-2,1.6-4.1,2.4-6.1c0.3-0.8,0.7-1.5,1.1-2.3c0.2-0.3,0.5-0.7,0.8-0.9
		c0.3-0.2,0.7-0.4,1.1-0.1c0.4,0.3,0.4,0.7,0.3,1.1c0,0.2,0,0.3-0.1,0.5c-1.7,3.7-2.8,7.6-4.3,11.3c-2.2,5.7-4.3,11.5-7.1,17
		c-2.1,3.9-4.2,7.8-6.8,11.5c-1.9,2.7-4.1,5-7,6.7c-2,1.2-4.1,1.9-6.5,1.9c-3.6,0-6.5-1.6-9.1-3.9c-3.5-3.2-5.8-7.1-7.4-11.4
		c-1.1-2.9-1.9-5.8-2.7-8.9c-0.5,0.9-0.5,1.7-0.6,2.5c-1,5.1-2,10.1-3.6,15c-0.4,1.3-0.9,2.6-1.5,3.8c-0.5,1-1.2,1.9-2.1,2.6
		c-1.5,1.2-3.3,1.3-4.8,0c-0.9-0.7-1.5-1.5-2.2-2.4c-1.7-2.4-2.8-5.1-3.8-7.9c-1.6-4.3-2.6-8.8-3.2-13.4c-0.7-4.6-0.9-9.3-1-14
		c0-0.2,0-0.3,0-0.6c-0.3,0.3-0.4,0.7-0.5,1c-4.1,12.7-8.2,25.5-12.7,38.1c-1.5,4.3-3.1,8.6-5.1,12.7c-1,2.1-2.2,4.1-3.7,5.9
		c-1.2,1.4-2.6,2.6-4.5,3c-1.6,0.4-2.9-0.1-4.1-1.1c-1-0.9-1.7-2.1-2.4-3.3c-1.4-2.7-2.3-5.5-2.9-8.5c-1.2-5.5-1.4-11.1-1.1-16.7
		c0.2-4.8,0.7-9.7,1.3-14.4c0.2-1.6,0.5-3.1,0.7-4.8c-0.5,0.2-0.6,0.6-0.9,0.9c-1,1.4-2.1,2.6-3.3,3.8c-1.6,1.4-3.4,2.4-5.6,2.5
		c-2.4,0.2-4.6-0.6-6.4-2.1c-1.2-1-2.1-2.2-2.9-3.5c-0.2-0.3-0.4-0.7-0.7-1.2c-0.2,0.5-0.3,0.9-0.4,1.3c-1,3.9-2,7.9-3.3,11.8
		c-0.8,2.2-1.7,4.4-3,6.4c-1.1,1.7-2.5,3.1-4.5,3.8c-2.3,0.8-4.6,0.7-6.9-0.4c-2.7-1.3-4.6-3.4-6.4-5.7c-2.1-2.9-3.6-6.1-4.6-9.5
		c-0.1-0.4-0.1-0.9-0.6-1.5c-0.4,1.7-0.7,3.2-1,4.7c-1.5,7.1-2.9,14.2-4.8,21.2c-1.1,4-2.4,7.9-3.9,11.8c-0.3,0.7-0.6,1.4-1,2.1
		c-1.1,1.9-3,2.6-5.1,2.1c-1.3-0.3-2.4-1.1-3.4-2c-2.9-2.9-4.6-6.4-5.3-10.4c-0.7-3.8-0.7-7.7-0.4-11.6c0.6-9.8,2.8-19.3,5.3-28.7
		c1.2-4.5,2.4-8.9,3.4-13.5c0.3-1.5,0.6-3.1,0.6-4.6c0-1-0.1-1.1-1-1.3c-1.9-0.4-3.8-0.5-5.7-0.7c-0.6-0.1-0.9,0.1-1,0.8
		c-1.8,11.4-5.5,22.1-10.8,32.3c-2.9,5.5-6.5,10.5-11.2,14.7c-1.7,1.5-3.5,2.8-5.5,3.7c-4.3,1.9-8.6,1.7-12.9-0.3
		c-4.6-2.2-7.8-5.8-10.2-10.1c-1.9-3.3-2.9-6.9-3.6-10.6c-0.9-4.9-1.3-9.9-0.7-14.9c0.5-4.2,1.3-8.4,3.4-12.2
		c1.4-2.6,3.3-4.7,5.8-6.3c3.3-2.1,6.8-2.6,10.5-1.2c5.3,2,9.1,5.5,10.6,11.2c0.2,0.7,0.4,1.3,0.6,2c0.4,1.5-0.5,2.3-2,2
		c-1.2-0.3-1.9-1-2.2-2.1c-0.5-1.9-1.5-3.4-2.8-4.8c-1-1.1-2.2-1.9-3.6-2.3c-1.4-0.5-2.7-0.3-4,0.5c-1.6,1-2.7,2.5-3.6,4.1
		c-1.3,2.5-1.9,5.2-2.4,7.9c-1.4,9-0.2,17.6,3.3,25.9c0.8,1.8,1.7,3.5,2.9,5.1c2.7,3.8,6.1,4.6,10.3,2.4c2.8-1.4,4.9-3.6,6.9-6
		c2.5-2.9,4.6-6.2,6.4-9.5c5.1-9.1,8.8-18.8,11-29c0.2-0.8,0.3-1.6,0.4-2.4c0.2-1.1,0.2-1.1-0.9-1.2c-1.6-0.1-3.2-0.4-4.7-0.8
		c-7.2-2-11.3-7.8-10.9-15.2c0.2-2.7,0.9-5.2,2.6-7.3c1.3-1.7,3-2.8,5.1-3.1c1.6-0.3,3,0.1,4.4,0.7c2,0.9,3.4,2.5,4.6,4.3
		c1.9,2.9,2.8,6.1,3.3,9.4c0.4,2.6,0.4,5.2,0.3,7.8c-0.1,1.3-0.1,1.2,1.2,1.2c2.3,0,4.6,0.1,6.9,0.4c4,0.5,7.2,3.5,7.9,7.5
		c0.4,2.4,0.3,4.7-0.1,7c-0.8,5-2.2,9.9-3.4,14.8c-1.3,5.8-2.6,11.7-3.4,17.6c-0.6,4.9-0.9,9.8-0.6,14.7c0.1,2.2,0.2,4.3,0.3,6.5
		c0,0.8,0.1,1.7,0.4,2.6c0.5-0.3,0.6-0.9,0.8-1.3c1.2-3.1,2.2-6.3,3.1-9.6c1.7-6.3,3-12.7,4.5-19c1.1-4.6,2.2-9.3,3.3-13.9
		c0.3-1.1,0.3-2.2,0.2-3.3c-0.6-6.7,0-13.3,2.2-19.7c0.8-2.2,1.7-4.3,3.2-6.2c2.2-2.9,5.1-4.5,8.9-4.3c1.4,0.1,2.7,0.5,3.9,1.2
		c2.9,1.6,4.9,4.1,5.9,7.3c1.3,4.2-0.6,8.9-4.7,11.3c-2,1.2-4.3,1.9-6.6,2.3c-0.5,0.1-1.1,0.2-1.7,0.2c-0.7,0-0.8,0.3-0.8,0.9
		c-0.1,1.9-0.1,3.8,0,5.6c0.5,7.2,2.7,13.8,5.9,20.2c0.6,1.3,1.3,2.5,2.3,3.5c0.6,0.7,0.7,0.7,1.3,0c0.9-0.9,1.6-1.9,2.1-3
		c1-1.8,1.7-3.8,2.4-5.7c1.6-4.9,3.2-9.9,4.8-14.8c0.1-0.4,0.2-0.7,0.2-1.2c-0.8-4.3-0.3-8.6,0.6-12.8c0.7-3.3,1.9-6.5,3.6-9.5
		c0.5-0.9,1.1-1.8,1.8-2.7c3.5-4.4,8.5-5.7,13.7-3.6c3.6,1.5,6.3,4,8.3,7.3c0.2,0.4,0.4,0.8,0.8,1.2c0.2-0.2,0.3-0.5,0.4-0.8
		c0.7-1.7,1.3-3.3,2.1-5c0.4-0.8,0.8-1.6,1.3-2.3c1-1.7,2.5-2,4.2-1.1c1.6,0.9,2.4,2.3,2.5,4.1c0.1,2.5-0.5,4.8-1.1,7.2
		c-1.5,6.4-3.2,12.7-4.5,19.1c-1.2,5.6-2.1,11.2-2.8,16.9c-0.5,4.2-1,8.3-1.3,12.5c-0.4,4.6-0.7,9.2-0.3,13.8
		c0.1,1.4,0.3,2.8,0.7,4.1c0.2,0.6,0.4,1.3,1,1.9c0.6-0.5,1-1.2,1.4-1.9c1.2-2.2,2.2-4.5,3.2-6.8c5.4-12.7,10-25.6,14.4-38.6
		c2.2-6.4,4.3-12.8,6.4-19.2c0.2-0.7,0.3-1.5,0.4-2.2c0.2-6,0.4-12.1,0.8-18.1c0.1-1.3,0.2-2.6,0.3-3.9c0.1-0.9,0.1-1-0.9-1.1
		c-2.6-0.4-5.3-0.9-7.9-1.3c-1.9-0.3-3.8-0.6-5.7-0.6c-2.7-0.1-5.3,0.2-8,0.8c-2.5,0.6-5,1.3-7.2,2.8c-0.3,0.2-0.7,0.3-1.1,0.3
		c-0.6,0-1.1-0.2-1.4-0.7c-0.3-0.5,0-1,0.3-1.4c0.7-0.9,1.5-1.5,2.5-2c2-1.1,4.2-1.8,6.4-2.3c3.6-0.9,7.2-1.2,10.8-1
		c2.8,0.2,5.6,0.6,8.4,1c1.1,0.2,2.3,0.4,3.4,0.5c0.7,0.1,0.8,0.1,0.9-0.7c0.2-2.4,0.5-4.7,0.8-7c0.2-1.7,0.5-3.4,1-5
		c0.2-0.5,0.3-1,0.6-1.4c1.4-2.6,4.3-2.2,5.7-0.5c0.7,0.9,1.1,2,1.3,3.2c0.6,3.6,0.5,7.3,0.4,10.9c-0.1,2.1-0.1,2.1,2,2.4
		c3,0.3,5.9,0.7,8.9,1c2.9,0.4,5.9,0.6,8.8,0.6c5.1-0.1,10.2-0.6,15.1-2.3c4.8-1.7,8.7-4.5,11.4-8.9c1.7-2.9,2.6-6,2.1-9.4
		c-0.4-2.7-1.7-4.9-3.8-6.6c-1.5-1.1-3.2-1.6-5.1-1.4c-1.6,0.2-2.8,1-3.6,2.3c-0.8,1.2-1.5,2.6-1.9,4c-0.6,1.9-2.7,1.7-3.7,0.8
		c-0.4-0.4-0.6-0.8-0.6-1.4c0.4-3.8,2.7-7.4,6.4-8.5c2.9-0.9,5.8-0.6,8.5,0.6c6.1,2.7,10.1,10.3,7,18c-2.1,5.1-5.7,8.9-10.5,11.6
		c-3.9,2.2-8.1,3.4-12.4,4.1c-4.9,0.8-9.8,0.9-14.7,0.7c-3.1-0.1-6.3-0.4-9.4-0.8c-1.3-0.2-2.5-0.3-3.8-0.5
		c-0.7-0.1-0.8-0.1-0.8,0.7c-0.1,2.4-0.1,4.7-0.2,7.1c-0.1,7.9-0.5,15.7-0.7,23.6c-0.2,7.3-0.2,14.6,0.2,21.8c0.2,4,0.7,8,1.9,11.8
		C281.5,242.1,281.8,243.1,282.5,243.9z M238.3,203.7c0-0.2,0-0.4-0.1-0.5c-0.5-3.5-2.1-6.3-4.7-8.6c-0.4-0.4-0.9-0.7-1.4-0.9
		c-0.9-0.5-1.8-0.5-2.7,0.1c-1.1,0.6-1.9,1.5-2.5,2.5c-1.1,1.6-1.9,3.4-2.6,5.2c-2,5.8-2.4,11.7-1.6,17.7c0.2,1.7,0.7,3.4,1.6,4.9
		c0.4,0.7,0.5,0.7,1.2,0.3c1.3-0.7,2.4-1.7,3.4-2.8c3.1-3.4,5.3-7.5,7.4-11.6c0.9-1.8,1.3-3.8,1.9-5.7
		C238.3,204,238.3,203.8,238.3,203.7z M158.5,190.1c0.1-1.6,0-3.3-0.2-4.9c-0.4-2.8-1.1-5.4-2.6-7.8c-0.6-1-1.3-1.9-2.3-2.6
		c-1.4-1-2.5-1-3.8,0c-1.4,1-2.2,2.4-2.8,3.9c-0.9,2.6-0.9,5.3-0.3,7.9c0.8,3.4,2.8,5.6,6.3,6.6c1.6,0.4,3.2,0.7,4.8,0.8
		c0.8,0.1,0.9,0.1,0.9-0.8C158.5,192.2,158.5,191.2,158.5,190.1z M193.8,206.6c1.9-0.3,3.5-0.7,5.1-1.4c2-0.9,3.4-2.4,4.1-4.4
		c0.8-2.3,0.4-4.3-1.3-6.1c-1.4-1.4-2.1-1.3-3.3,0.2C195.7,198.3,194.6,202.3,193.8,206.6z M301.4,197.5c1.7-0.1,3.4-0.4,5-1
		c1.8-0.7,2.9-2,3.1-3.9c0.2-2.2-0.4-4.1-2.3-5.5c-0.9-0.7-1.5-0.6-2.3,0.2c-0.6,0.6-1,1.3-1.3,2c-0.9,2-1.5,4.2-2,6.4
		C301.4,196.3,301.2,196.8,301.4,197.5z"/>
	<path class="st1" d="M178.1,178.6c0.6-1,0.7-1.8,0.8-2.6c1-4.2,1.5-8.5,2.4-12.7c1-5.1,2-10.3,3.1-15.4c0.1-0.7,0.2-1.4,0.2-2.1
		c-0.5-6.1-0.4-12.1,0.9-18.1c0.5-2.3,1.1-4.6,2.1-6.7c0.5-1.1,1.1-2.1,1.8-3.1c2.7-3.5,6.7-4.7,10.9-3.5c6.3,1.9,10.3,8.7,8.7,14.9
		c-0.8,3.1-2.8,5.3-5.5,6.8c-2.4,1.4-5.1,2.1-7.8,2.4c-0.8,0.1-0.9,0.1-0.8,0.9c0.1,6.7,1.1,13.2,3.3,19.5c0.6,1.7,1.4,3.3,2.6,4.7
		c1,1.2,1.5,1.3,2.9,0.6c1.3-0.7,2.3-1.8,3.3-3c1.6-2,2.8-4.2,4-6.4c2.2-4.3,4.1-8.8,6.2-13.1c0.8-1.7,1.1-3.3,0.9-5.1
		c-0.4-5.4,0.6-10.5,2.9-15.4c1.7-3.5,4-6.3,7.4-8.2c4.5-2.5,9.1-2.7,13.8-0.5c2.9,1.4,5.2,3.4,6.9,6.1c0.2,0.3,0.4,0.7,0.7,1.1
		c0.3-0.3,0.4-0.6,0.5-0.9c0.7-1.7,1.4-3.3,2.4-4.8c1.2-1.8,2.2-2.2,4-1.9c1.9,0.4,3.3,1.7,3.7,3.5c0.3,1.3,0.1,2.6-0.1,3.8
		c-0.7,3.6-1.8,7-2.6,10.6c-1.3,5.5-2.2,11.1-2.8,16.8c-0.3,3.1-0.8,6.1-0.7,9.2c0,0.3-0.1,0.6,0.2,1c0.5-0.4,0.7-0.9,1.1-1.4
		c1.7-2.7,3-5.5,4.4-8.4c3.2-7,6.3-14.1,9.9-20.9c1.4-2.8,2.5-5.5,2.8-8.7c0.2-2.1,0.9-4.1,1.9-6c0.4-0.6,0.8-1.2,1.3-1.7
		c2.1-1.8,5.5-0.7,6.1,1.9c0.1,0.6,0.2,1.2,0.2,1.8c0,3.9,0,7.8,0,11.8c0,1.3,0.1,2.6,0.1,4c0,0.3,0,0.6,0.2,0.9
		c0.4-0.3,0.5-0.7,0.7-1.1c2-4.2,4.4-8.1,7.4-11.6c0.7-0.8,1.4-1.6,2.2-2.3c2.9-2.6,6.8-1.5,8.6,1c1.3,1.8,1.8,3.8,2.2,5.9
		c0.1,0.7,0.2,1.5,0.3,2.3c0.5-0.3,0.5-0.7,0.7-1.1c3.3-7,7.5-13.4,12.8-19.2c1-1.2,2.2-2.2,3.4-3.2c2.6-2.2,6-0.9,7.5,1.2
		c0.9,1.3,1.3,2.7,1.5,4.2c0.5,2.6,0.6,5.2,0.7,7.8c0.1,4,0,7.9-0.2,11.9c-0.1,1.5,0,3,0.2,4.6c0,0.2,0,0.4,0.1,0.6
		c0.2,0.5,0.1,1.2,0.7,1.3c0.5,0.1,0.8-0.4,1.1-0.8c1.1-1,2-2,3-3.1c0.4-0.6,1-1.1,1.5-1.6c0.5-0.5,1.2-0.6,1.9-0.5
		c1,0.2,1.3,0.9,0.9,1.8c-0.9,1.6-1.7,3.2-2.7,4.7c-1,1.6-2.3,2.9-4.2,3.4c-2.8,0.8-5.3,0.1-7.5-1.7c-1.2-1-2-2.2-2.6-3.6
		c-1.8-3.7-2.6-7.7-2.5-11.8c0.1-3.6,0.5-7.2,1.2-10.7c0.1-0.7,0.2-1.5,0.2-2.3c-0.6,0.6-1.3,1.1-1.8,1.7c-3.8,3.7-6.8,8.1-9.4,12.7
		c-2.9,5.1-5.2,10.5-7,16.1c-0.5,1.4-0.5,2.9-0.7,4.4c-0.6,4.3-1.3,8.6-2.2,12.9c-0.5,2.1-2.4,3.2-4.5,2.7c-0.9-0.3-1.5-0.8-1.8-1.8
		c-0.3-1.3-0.4-2.7-0.4-4c-0.3-5.7,0.1-11.4,0.8-17.1c0.5-3.8,0.9-7.6,1.4-11.4c0.1-1.1,0.2-2.3,0-3.5c-0.5,0.1-0.8,0.4-1.1,0.7
		c-1.2,1.2-2.3,2.5-3.3,3.8c-4.1,5.8-6.7,12.2-7.7,19.3c-0.1,0.7-0.3,1.4-0.4,2.1c-0.2,0.9-0.9,1.5-1.7,1.9
		c-1.6,0.7-3.6,0.3-4.9-0.9c-0.8-0.8-1.3-1.7-1.8-2.7c-1.1-2.2-1.7-4.6-2.2-7.1c-0.3-1.4-0.5-2.8-0.6-4.2c0-0.4,0-0.8-0.2-1.2
		c-0.4,0.3-0.5,0.8-0.6,1.1c-2.8,6-5.3,12.2-7.7,18.3c-1.1,2.7-2.2,5.3-3.8,7.7c-0.9,1.3-1.8,2.6-3,3.6c-1.7,1.4-3.6,2-5.8,1.4
		c-1.1-0.3-2-1-2.8-1.8c-1.8-1.9-2.8-4.3-3.2-6.8c-0.7-3.6-0.6-7.2-0.1-10.9c0.2-1.9,0.5-3.8,0.8-5.7c0-0.1,0-0.2-0.1-0.4
		c-0.2,0.4-0.5,0.7-0.7,1.1c-1.9,3.2-3.9,6.4-6.1,9.3c-0.7,1-1.5,1.9-2.4,2.8c-3.5,3.3-8.2,3.4-11.8,0.1c-1.5-1.4-2.6-3-3.6-4.8
		c-0.2-0.3-0.3-0.7-0.6-1c-0.4,0.2-0.4,0.6-0.5,0.9c-1.2,2.8-2.4,5.7-3.6,8.5c-1.7,3.8-3.6,7.4-6.4,10.5c-1.6,1.8-3.5,3.2-5.9,3.9
		c-2.3,0.7-4.5,0.5-6.7-0.5c-4.2-2-7.1-5.3-9.3-9.4c-0.2-0.4-0.3-0.7-0.5-1.1c0,0-0.1,0-0.1-0.1c-0.3,0.1-0.3,0.4-0.3,0.6
		c-1,5.3-1.8,10.6-2.7,15.8c-0.4,2.2-0.7,4.5-1.4,6.7c-0.1,0.5-0.3,0.9-0.5,1.4c-1.3,3.4-4.9,4.1-7.5,3c-1.2-0.5-2.3-1.3-3.2-2.3
		c-2.3-2.5-3.5-5.6-4.4-8.8c-1-3.8-1.1-7.7-1-11.7c0.2-6.9,1.1-13.7,2.3-20.5c0.5-3,1.1-6,1.5-9.1c0.1-1,0.1-2,0.1-3
		c0-0.7-0.3-1-1-1.1c-1.5-0.2-3-0.1-4.4-0.1c-0.6,0-0.8,0.4-0.9,0.9c-1.9,9.2-5.4,17.8-10.6,25.7c-2.1,3.2-4.6,6.1-7.8,8.4
		c-1.9,1.3-3.9,2.2-6.2,2.2c-2,0-3.8-0.7-5.5-1.9c-2.3-1.6-3.7-3.8-5-6.2c-1.6-3.1-2.4-6.4-2.9-9.7c-0.3-1.7-0.5-3.3-0.7-5.1
		c-0.4,0.3-0.5,0.8-0.7,1.1c-1.5,3.1-3,6.3-4.8,9.3c-1.6,2.7-3.3,5.2-5.4,7.5c-1.1,1.2-2.3,2.3-3.7,3.3c-2.9,2-6,2.3-9.2,1.1
		c-4.2-1.6-7-4.5-8.8-8.5c-1.8-4.1-2.5-8.3-2.1-12.8c0.4-5.3,2.1-10.1,4.8-14.5c3.2-5.2,7.8-8.3,13.9-9.3c5.4-0.9,10.2,0.4,14.6,3.5
		c0.3,0.2,0.6,0.5,1.1,0.7c0.2-1.7,0.3-3.3,0.5-5c0.7-6.4,1.7-12.7,4.1-18.7c1.5-3.7,3.2-7.1,5.9-10.1c0.8-0.9,1.8-1.7,2.8-2.4
		c3.6-2.2,7.4-1.1,9.7,1.8c1.7,2.2,2.3,4.7,2.4,7.4c0.2,4.9-1,9.5-3,13.9c-2.8,6-6.6,11.3-11.3,16c-0.6,0.6-0.8,1.2-0.9,2
		c-0.2,7.9,0.5,15.7,2.3,23.4c0.6,2.4,1,4.9,2,7.1c0.2,0.4,0.4,0.8,0.6,1.2c0.2,0.5,0.6,0.6,1.1,0.4c0.7-0.3,1.4-0.6,2-1
		c2.3-1.5,4.2-3.4,5.9-5.6c3.2-4.2,5.5-8.9,7.4-13.8c1.4-3.5,2.5-7,3.2-10.6c0.1-0.3,0.1-0.5,0.1-0.8c0-0.1,0-0.2,0-0.4
		c-0.5-0.2-1-0.1-1.4-0.1c-2.2,0.2-4.3,0-6.4-0.6c-1.4-0.4-2.7-1-3.8-1.9c-1.9-1.6-2.7-3.7-2-6.1c0.9-3.3,3-5.7,6.2-6.9
		c3.2-1.2,7.1,0.1,9.4,3.1c1.6,2,2.2,4.4,2.3,6.9c0.1,1.5,0,1.5,1.6,1.3c1.9-0.2,3.8-0.3,5.7,0c4.2,0.7,6.6,3.3,7.5,7.4
		c0.6,2.5,0.4,4.9,0.2,7.4c-0.5,4.5-1.2,8.9-1.7,13.4c-0.5,4.8-0.9,9.6-0.6,14.4C176.8,170.8,177.2,174.6,178.1,178.6z M99.3,145.8
		c0,5,0.7,8.7,1.8,11.3c0.5,1.2,1.2,2.3,2.3,3.2c0.9,0.8,1.8,0.9,2.9,0.4c1-0.5,1.9-1.1,2.8-1.8c2.5-2.2,4.5-4.8,6.3-7.6
		c2.8-4.4,5.1-9.1,7.4-13.8c1.1-2.2,1.8-4.4,1.5-6.9c0-0.2,0-0.5,0-0.7c0.1-0.6-0.2-1-0.6-1.3c-1.4-1.2-3-2.2-4.8-3
		c-1.2-0.5-2.5-0.8-3.9-0.7c-4.9,0.4-8.8,2.5-11.4,6.8C100.7,136.5,99.3,141.6,99.3,145.8z M227.8,137.7c0,2.6,0.1,5.3,1,7.8
		c0.3,0.9,0.7,1.7,1.3,2.4c0.4,0.5,0.8,0.6,1.3,0.3c0.8-0.5,1.6-1.1,2.3-1.7c1.3-1.3,2.5-2.8,3.6-4.4c3.7-5.3,6.9-11.1,10.1-16.7
		c0.3-0.5,0.3-0.9,0-1.5c-1.3-3.1-3.5-5.2-6.5-6.5c-0.6-0.3-1.2-0.4-1.8-0.5c-1.9-0.1-3.3,0.6-4.7,1.8c-1.7,1.5-2.9,3.5-3.8,5.6
		C228.7,128.5,227.8,133,227.8,137.7z M135.3,120.5c3.8-4.7,7.2-9.3,9.2-14.8c1.1-2.9,1.7-5.8,1.7-8.9c0-1.7-0.3-3.4-1.2-5
		c-0.9-1.6-1.6-1.7-3-0.4c-0.6,0.6-1.1,1.4-1.5,2.1c-1.1,2-1.9,4.2-2.4,6.5c-1.4,5.6-2,11.3-2.6,17
		C135.4,118.1,135.2,119.1,135.3,120.5z M195,133.2c-0.1,1.8,0,1.9,1.3,1.6c2-0.4,3.8-1.1,5.4-2.3c2.9-2.2,4-5.8,2.8-9.2
		c-0.6-1.8-1.8-3.3-3.5-4.2c-1.2-0.6-2-0.3-2.7,0.7c-0.3,0.4-0.5,0.9-0.7,1.4C196,125.2,195.5,129.4,195,133.2z M156.4,125.4
		c1,0,2,0,3-0.2c0.4-0.1,0.5-0.2,0.6-0.6c0-1.7-0.1-3.4-0.8-5c-0.4-1-1-1.8-1.9-2.4c-1.3-0.9-2.4-1-3.6,0c-1.4,1.1-2.4,2.6-2.9,4.3
		c-0.6,2,0.1,3.1,2.1,3.7C154,125.4,155.2,125.3,156.4,125.4z"/>
	<g>
		<path class="st1" d="M309.1,300.1c-0.4,2-0.7,3.7-1,5.4c-1.2,5.7-2.3,11.4-4.3,16.8c-0.6,1.7-1.4,3.4-2.4,4.9
			c-1.2,1.7-2.6,2.9-4.6,3.5c-2.4,0.7-4.6,0.2-6.6-1.2c-1.8-1.3-3.2-3-4.3-5c-1.9-3.3-2.9-6.9-3.2-10.7c-0.6-5.6-0.2-11.3,0.4-16.9
			c0.7-6,1.7-11.9,3.4-17.6c1.2-4.1,2.5-8.1,4.3-12c0.1-0.2,0.2-0.4,0.1-0.6c-1.1-0.2-2.3,0.1-3.4,0.2c-1.9,0.2-3.7,0.6-5.6,0.9
			c-1,0.2-1,0.2-0.9,1.2c0,1.9,0,3.8-0.2,5.8c-0.5,5-1.4,10-2.7,14.8c-2.2,8.2-5.1,16.2-9.1,23.8c-2,3.8-4.4,7.3-7.6,10.1
			c-1.2,1-2.5,1.9-3.9,2.5c-3.9,1.7-7.6,1.2-10.8-1.6c-2.1-1.8-3.4-4.1-4.5-6.6c-1.9-4.3-2.5-8.8-2.6-13.4c-0.1-4,0.3-8,0.8-11.9
			c0-0.1,0-0.2,0-0.4c-0.3,0-0.4,0.1-0.5,0.3c-1.3,1.5-2.8,2.8-4.4,3.9c-0.8,0.6-1.1,1.2-1.1,2.2c0,3.2-0.4,6.5-1.4,9.6
			c-1.1,3.3-2.7,6.2-5.4,8.5c-3.1,2.6-6.7,3.8-10.8,3.2c-2.1-0.3-3.7-1.5-4-3.2c-0.2-1.1,0-2.1,0.3-3.2c0.7-2,1.9-3.7,3.2-5.3
			c2-2.3,4.4-4.1,6.7-5.9c0.7-0.5,1.3-1,2-1.5c0.3-0.2,0.5-0.5,0.5-0.9c0.4-4.7,0.3-9.4-0.8-14c-0.3-1.4-0.8-2.8-1.6-4.1
			c-0.3-0.4-0.5-0.8-0.8-1.2c-0.6-0.7-1.4-1-2.4-0.7c-1,0.3-1.8,0.8-2.6,1.4c-1.9,1.5-3.4,3.3-4.8,5.2c-3,4.2-5,8.9-6.6,13.8
			c-2.2,6.7-3.8,13.6-4.3,20.6c-0.3,4.4-0.2,8.7,0.3,13.1c0.3,2.8,0.7,5.6,1.3,8.4c0,0.2,0,0.5,0.1,0.7c0.2,1.3-0.2,2.3-1.3,2.9
			c-1.2,0.7-2.4,0.7-3.6-0.1c-0.8-0.6-1.5-1.4-2.1-2.1c-1.8-2.2-3.1-4.8-4.3-7.3c-3.4-6.9-5.5-14.3-6.5-22c-0.8-6.5-1.2-13-1.2-19.5
			c0-0.4,0.1-0.9-0.1-1.3c-0.3-0.1-0.4,0.1-0.5,0.2c-3.8,3.5-7.8,6.9-11.7,10.3c-1.5,1.3-2.9,2.7-4.2,4.1c-0.4,0.4-0.5,0.8-0.2,1.4
			c1.6,3,3,6.1,3.8,9.4c0.9,3.6,1.2,7.1-0.1,10.6c-1.3,3.4-3.5,5.9-7.1,6.9c-0.8,0.2-1.6,0.4-2.5,0.3c-2.2-0.2-3.7-1.4-4.5-3.4
			c-1-2.4-1.2-4.9-1.1-7.4c0.1-3.3,1-6.5,2.6-9.4c0.4-0.7,0.4-1.3,0.1-2c-1.1-2.6-2.3-5.1-3.5-7.7c-0.4,0.2-0.4,0.5-0.4,0.8
			c-1.6,6.2-3.3,12.4-5.5,18.4c-0.8,2.1-1.7,4.2-3,6.1c-0.8,1.2-1.8,2.3-3.1,3.2c-3,2-6.3,1.6-8.7-1.2c-2.1-2.5-3.2-5.5-4-8.6
			c-1.4-5.6-1.8-11.4-1.7-17.1c0.1-4.7,0.4-9.4,0.9-14.1c0.5-5,1-10,1.4-15c0.1-0.6,0.1-1.2,0-2c-0.5,0.3-0.7,0.7-0.9,1
			c-2.2,3.3-3.8,6.8-5.2,10.5c-2.8,7.2-4.5,14.6-5.3,22.3c-0.3,2.5-0.6,4.9-0.8,7.4c-0.2,1.7-1,2.8-2.7,3.3c-1.7,0.5-3.3,0.3-4.7-1
			c-0.6-0.6-1.1-1.3-1.5-2c-1.6-3-2.5-6.2-3.3-9.5c-1.1-4.5-1.4-9.2-1.6-13.8c0-0.3,0-0.6-0.2-1c-0.1,0.4-0.2,0.7-0.3,1.1
			c-1.3,4.6-2.6,9.2-4.6,13.5c-0.9,1.9-1.8,3.7-2.9,5.4c-0.5,0.7-1,1.4-1.5,2c-2.3,2.8-5.9,2.9-8.4,1.2c-1.4-0.9-2.5-2-3.4-3.3
			c-3.4-4.7-5.8-9.8-7.1-15.5c-1.8-7.5-1.5-14.9,0.9-22.2c0.2-0.8,0.5-1.5,0.9-2.2c1.3-2.1,4.2-2.1,5.4,0c0.4,0.6,0.6,1.3,0.6,2
			c0.3,3.1,0.3,6.1,0.4,9.2c0.3,7.1,1.1,14.1,2.9,21c0.6,2.3,1.5,4.6,2.7,6.7c0.2,0.4,0.5,0.7,0.7,1.1c0.3,0.5,0.6,0.5,1.1,0.1
			c0.9-0.9,1.6-1.9,2.3-2.9c2-3.2,3.4-6.6,4.5-10.2c2-6.1,3.5-12.3,5.3-18.4c0.8-2.7,1.6-5.4,2-8.3c0.1-0.6,0.3-1.2,0.5-1.9
			c0.4-1.3,1.2-2,2.6-2c1.9-0.1,3.8,1.1,4.7,2.9c0.4,0.8,0.6,1.7,0.7,2.7c0.1,1.4,0.3,2.7,0.3,4.1c0.1,6.1,0.2,12.2,0.7,18.3
			c0.1,1.5,0.1,2.9,0.5,4.6c0.7-2.5,1.2-4.8,1.9-7.1c1.9-6.7,4.3-13.3,7.6-19.5c0.8-1.5,1.6-3,2.6-4.3c1.8-2.3,4.1-2.8,6.7-1.5
			c1.7,0.8,2.8,2.2,3.6,3.8c1.2,2.4,1.6,4.9,1.7,7.6c0.2,4.2-0.1,8.4-0.4,12.6c-0.3,3.9-0.5,7.9-0.6,11.9c-0.2,4.9-0.4,9.7-0.4,14.6
			c0,3,0.1,6.1,0.5,9.1c0.1,0.6,0.2,1.1,0.4,1.6c0.4,0.9,0.6,0.9,1.3,0.4c1-0.8,1.7-1.8,2.3-2.9c0.9-1.6,1.6-3.2,2.3-4.9
			c2.4-6.2,4.1-12.7,5.7-19.2c0.2-0.9,0.4-1.8,0.7-2.7c0.2-0.8,0.1-1.5-0.3-2.3c-3.2-5.7-5.7-11.7-7.9-17.8
			c-1.2-3.4-1.9-6.9-1.6-10.5c0.2-2.9,1-5.6,2.4-8.1c0.8-1.3,1.7-2.5,3-3.4c2.5-1.7,5.6-1.5,7.9,0.5c1.5,1.4,2.4,3.2,2.9,5.1
			c0.4,1.7,0.7,3.4,0.7,5.1c0.2,5-0.2,10-0.9,15c-0.2,1.9-0.5,3.7-0.8,5.6c-0.1,0.7,0.1,1.3,0.4,1.9c1.8,3,3.8,5.9,5.7,8.9
			c0.6,1,1.2,2,1.8,3c2.4-2.6,5-4.9,7.6-7.2c3.4-3,6.8-5.9,10.2-9c0.7-0.6,0.9-1.3,1-2.2c0.5-6.4,1.4-12.8,4.1-18.8
			c0.9-2.1,2.2-4.1,3.7-5.9c1-1.2,2.2-2.1,3.6-2.9c3.2-1.8,9,0,9.2,5.5c0.1,2-0.4,3.9-1.1,5.7c-1.7,4.5-4.4,8.3-7.9,11.6
			c-0.6,0.5-0.8,1.1-0.9,1.9c-0.4,5.7-0.4,11.4-0.2,17.1c0.2,6.1,1,12.2,2.1,18.2c0,0.3,0.1,0.6,0.3,0.8c0.2-1.8,0.3-3.6,0.6-5.3
			c1.3-9.1,3.6-17.8,7.7-26.1c1.5-3.1,3.3-5.9,5.5-8.5c0.9-1.1,1.9-2.1,3.1-3c4.5-3.6,9.7-3.2,13.6,1c1.2,1.3,2.2,2.8,3,4.5
			c1.4,2.8,2.5,5.8,2.9,9c0,0.3,0,0.6,0.3,0.8c1.8-1.6,3.4-3.3,4.9-5.2c0.7-0.9,1.3-1.8,2-2.7c0.5-0.6,0.9-1.3,1.1-2.1
			c0.2-0.6,0.5-1.1,0.8-1.6c1.3-2.6,4.8-2.1,6-0.1c0.6,1.1,0.9,2.3,1.1,3.5c0.3,1.8,0.3,3.6,0.3,5.4c-0.1,3.5-0.4,7-0.4,10.5
			c-0.1,5.7,0.6,11.2,1.9,16.7c0.3,1.2,0.6,2.3,1.2,3.4c0.5,0.9,0.6,0.9,1.5,0.6c1.4-0.5,2.6-1.4,3.7-2.4c2.5-2.2,4.5-4.9,6.2-7.8
			c3.6-6,6.3-12.4,8.4-19c1.6-5,2.9-10.2,3.5-15.4c0.3-2.6,0.5-5.2,0.4-7.8c0-1.1,0-1.1-1.1-1c-3.7,0.2-7.3-0.1-10.8-1.4
			c-2.4-0.9-4.4-2.4-5-5.1c-1-4.3-0.1-8.2,3.2-11.3c2.8-2.7,6.4-3,9.7-0.8c3,2,4.9,4.8,6.2,8c0.7,1.9,1.2,3.8,1.5,5.8
			c0.2,1.1,0.2,1,1.2,0.9c3.4-0.5,6.7-1,10.1-1.5c0.9-0.1,1.9-0.2,2.9,0c3,0.6,4.8,3,4.7,6.2c-0.1,2.3-0.7,4.6-1.4,6.8
			c-1.8,5.7-3.2,11.5-4.2,17.5c-1.2,7.5-1.7,14.9-0.8,22.5c0.3,2.6,0.8,5.1,2,7.5c0.3,0.7,0.8,1.3,1.3,1.9c0.8,0.8,1.4,0.8,2-0.2
			c0.7-1.1,1.2-2.2,1.7-3.4c1.8-4.8,3.1-9.7,4.3-14.6c1.3-5.2,2.4-10.4,3.4-15.7c0.2-0.8,0.2-1.7,0.1-2.5c-0.2-3.7-0.2-7.4,0.3-11.1
			c0.6-4.7,2.1-9.1,5.3-12.7c2.3-2.6,5.1-4.3,8.6-4.8c2.1-0.3,4.1-0.1,6,0.8c3.9,1.8,6.7,4.6,7.3,9c0.5,3.7-0.7,6.8-3.7,9
			c-1.9,1.4-4,2.1-6.3,2.6c-2.1,0.5-4.1,0.9-6.2,1.2c-0.5,0.1-0.7,0.2-0.7,0.7c0,6.1,0.3,12.1,2.4,17.8c1.4,3.9,3.5,7.4,6,10.6
			c0.3,0.4,0.7,0.8,1.1,1.2c2.7,2.7,6.8,2.8,9.7,0.3c1.6-1.4,2.8-3,4.1-4.7c2.1-2.8,3.5-6,4.9-9.2c3-6.8,5.5-13.7,7.2-20.9
			c0.2-0.7,0.3-1.5,0.4-2.2c0.1-0.5,0.3-0.9,0.7-1.2c0.4-0.3,0.9-0.4,1.4-0.2c0.5,0.2,0.4,0.6,0.5,1c0,1.5-0.2,2.9-0.5,4.3
			c-1.7,7.7-3.9,15.2-7.1,22.5c-2,4.5-4.5,8.5-7.8,12.2c-3.7,4.1-8.3,6-13.8,5.8c-3.2-0.1-6-1.5-8.5-3.5c-4.3-3.6-7.1-8.2-8.8-13.5
			C309.9,302.7,309.5,301.5,309.1,300.1z M318.6,279.6c1.6-0.1,3.1-0.4,4.6-0.6c1.6-0.3,3.1-0.6,4.6-1.2c2-0.8,3.1-2.2,3.4-4.4
			c0.4-2.7-1.2-5.9-3.6-7.2c-2.5-1.4-3.8-1.1-5.4,1.3c-1.6,2.4-2.6,5.1-3.2,7.9C318.8,276.7,318.5,278.1,318.6,279.6z M154.9,288.4
			c0.1-0.5,0.2-0.8,0.3-1.1c0.5-3.9,0.9-7.8,1-11.7c0.1-2.3,0-4.6-0.5-6.9c-0.3-1.5-0.7-2.9-1.6-4.1c-0.8-1.1-1.2-1.1-2.2-0.1
			c-0.5,0.6-1,1.3-1.3,2c-0.8,1.7-1.1,3.6-1.2,5.5c-0.1,3.5,0.6,6.9,2.1,10.1C152.5,284.2,153.6,286.3,154.9,288.4z M276.7,265.2
			c-0.4-2.7-0.9-5.3-2.1-7.7c-1-2.1-2.5-3.8-4.5-5c-1.1-0.7-1.6-0.7-2.5,0.3c-2.2,2.2-3,4.9-2.6,8c0.2,1.8,1.3,3,3,3.6
			C270.8,265.4,273.6,265.4,276.7,265.2z M224.7,304.7c-1.7,1.2-3.3,2.5-4.7,4.1c-0.9,1-1.7,2-2.3,3.2c-0.3,0.7-0.6,1.4-0.6,2.2
			c0,1,0.3,1.3,1.3,1.1c1.7-0.3,2.9-1.2,3.8-2.7C223.6,310.2,224.2,307.5,224.7,304.7z M161.8,332.8c0.7-1.3,0.6-2.5,0.5-3.7
			c-0.2-2.8-0.8-5.6-1.6-8.3c-0.1-0.3,0-0.6-0.4-0.6c-1,3.2-1.2,6.4-0.3,9.6C160.3,330.8,160.8,331.9,161.8,332.8z M196.4,276.9
			c0.3,0,0.4-0.1,0.4-0.2c1.5-2.2,2.8-4.4,3.7-7c0.4-1.2,0.7-2.5,0.6-3.8c0-0.4,0.1-1.1-0.4-1.2c-0.5-0.2-0.7,0.5-1,0.9
			c-0.9,1.5-1.5,3.2-2,4.9C197.3,272.6,196.8,274.7,196.4,276.9z"/>
		<path class="st1" d="M79.4,270.3c-0.4,0-0.9-0.1-1.3-0.2c-2.2-0.6-3-3.2-1.6-5c1.4-1.8,4.6-2.5,6.7-1.4c1.5,0.8,1.9,2.2,1.1,3.6
			C83.2,269.3,81.6,270.2,79.4,270.3z"/>
		<path class="st1" d="M246.1,277.5c-0.8,0-1.5-0.2-2.1-0.6c-1-0.7-1.3-1.8-0.7-2.8c1-1.9,4.1-2.8,6-1.8c1.1,0.6,1.5,1.8,0.9,2.9
			C249.3,276.8,247.9,277.5,246.1,277.5z"/>
	</g>
</g>
</svg>
