Bravo,TRUE,0:00:00,0:00:00,0:00:00,0:00:00
Kilo,TRUE,0:00:00,0:00:00,0:00:00,0:00:00
Zone Teams Out,FALSE,00:10:00,00:00:00,00:00:00,00:00:00
Man your routes,TRUE,0:00:00,0:00:00,0:00:00,0:00:00
basjdlvbkj,TRUE,0:00:00,0:00:00,0:00:00,0:00:00
vanljdbvu,TRUE,0:00:00,0:00:00,0:00:00,0:00:00
dsjkvhoia,TRUE,0:00:00,0:00:00,0:00:00,0:00:00
