%YAML 1.1
%TAG !u! tag:unity3d.com,2011:
--- !u!1045 &1
EditorBuildSettings:
  m_ObjectHideFlags: 0
  serializedVersion: 2
  m_Scenes:
  - enabled: 0
    path: Assets/Scenes/SafetyCenter_1_0_Edge.unity
    guid: ea7bb4bed4e8c744db644fcb3a4588ba
  - enabled: 1
    path: Assets/Scenes/SafetyCenter_1_0_Symphony.unity
    guid: 78dca13e453eac64d98100f0067f63ce
  m_configObjects: {}
